inperson,Anatomy 1,Dr. Professorton,Biology,3D.11
online,Anatomy 2,Dr. Professorton,Biology
inperson,Cellular Biology,Dr. Professorton,Biology,3D.13
inperson ,Taxonomy,Prof. Bron,Biology,3D.11
inperson,Structural Biology,Prof. Bron,Biology,3D.17
online,Aeronautical engineering,Prof. Wright,Engineering
online,Digital Electronics,Dr. Computerman,Engineering
inperson ,Assembly Programming,Dr. Computerman,Computer Science,4H.15
inperson,Advanced Data Structures,Prof. Tilley,Computer Science,4H.17
online,Study Techniques,Dr. Professorton,General Education
inperson,Renaissance Literature,Prof. Emerson,English,5A.6
group,Language Learning Group,4C.11
group,Honors Biology Reading Group,3D.8
